Data wrangling 2: reshaping and merging
…
# Structure of "tidy" data

Each observation has a row, each attribute has a column.

--

Definition of "observation" may depend on application. 

---

## "Wide" version of some V-Dem data 

```
## # A tibble: 181 x 18
##    country_name  country_text_id polyarchy_1980 polyarchy_1985
##    <chr>         <chr>                    <dbl>          <dbl>
##  1 Mexico        MEX                      0.302          0.328
##  2 Suriname      SUR                      0.247          0.179
##  3 Sweden        SWE                      0.906          0.908
##  4 Switzerland   CHE                      0.872          0.87 
##  5 Ghana         GHA                      0.549          0.101
##  6 South Africa  ZAF                      0.166          0.183
##  7 Japan         JPN                      0.834          0.835
##  8 Burma/Myanmar MMR                      0.137          0.137
##  9 Russia        RUS                      0.11           0.112
## 10 Albania       ALB                      0.175          0.175
## # … with 171 more rows, and 14 more variables: polyarchy_1990 <dbl>,
## #   polyarchy_1995 <dbl>, polyarchy_2000 <dbl>, polyarchy_2005 <dbl>,
## #   polyarchy_2010 <dbl>, polyarchy_2015 <dbl>, gdppc_1980 <dbl>,
## #   gdppc_1985 <dbl>, gdppc_1990 <dbl>, gdppc_1995 <dbl>,
## #   gdppc_2000 <dbl>, gdppc_2005 <dbl>, gdppc_2010 <dbl>, gdppc_2015 <dbl>
```
…
- `pivot_longer()` makes "wide" datasets longer
- `pivot_wider()` makes "long" datasets wider

What do we need here? 
]

.pull-right[ .small-output[

```r
vdw
```

```
## # A tibble: 181 x 18
##    country_name  country_text_id polyarchy_1980 polyarchy_1985
##    <chr>         <chr>                    <dbl>          <dbl>
##  1 Mexico        MEX                      0.302          0.328
##  2 Suriname      SUR                      0.247          0.179
##  3 Sweden        SWE                      0.906          0.908
##  4 Switzerland   CHE                      0.872          0.87 
##  5 Ghana         GHA                      0.549          0.101
##  6 South Africa  ZAF                      0.166          0.183
##  7 Japan         JPN                      0.834          0.835
##  8 Burma/Myanmar MMR                      0.137          0.137
##  9 Russia        RUS                      0.11           0.112
## 10 Albania       ALB                      0.175          0.175
## # … with 171 more rows, and 14 more variables: polyarchy_1990 <dbl>,
## #   polyarchy_1995 <dbl>, polyarchy_2000 <dbl>, polyarchy_2005 <dbl>,
## #   polyarchy_2010 <dbl>, polyarchy_2015 <dbl>, gdppc_1980 <dbl>,
## #   gdppc_1985 <dbl>, gdppc_1990 <dbl>, gdppc_1995 <dbl>,
## #   gdppc_2000 <dbl>, gdppc_2005 <dbl>, gdppc_2010 <dbl>, gdppc_2015 <dbl>
```
…
Source: [RStudio cheatsheet for tidyr](https://www.rstudio.com/resources/cheatsheets/)

---

## Applying `pivot_longer()`

```r
vdw %>% 
  pivot_longer(cols = polyarchy_1980:gdppc_2015,
               names_to = "name", values_to = "value")
```

```
## # A tibble: 2,896 x 4
##    country_name country_text_id name              value
##    <chr>        <chr>           <chr>             <dbl>
##  1 Mexico       MEX             polyarchy_1980    0.302
##  2 Mexico       MEX             polyarchy_1985    0.328
##  3 Mexico       MEX             polyarchy_1990    0.387
##  4 Mexico       MEX             polyarchy_1995    0.487
##  5 Mexico       MEX             polyarchy_2000    0.634
##  6 Mexico       MEX             polyarchy_2005    0.701
##  7 Mexico       MEX             polyarchy_2010    0.652
##  8 Mexico       MEX             polyarchy_2015    0.631
##  9 Mexico       MEX             gdppc_1980     9929    
## 10 Mexico       MEX             gdppc_1985     9785    
## # … with 2,886 more rows
```
…
Also, we want a `year` column.

---

## `separate()`

```r
vdw %>% 
  pivot_longer(cols = polyarchy_1980:gdppc_2015,
               names_to = "name", values_to = "value") %>% 
* separate(name, into = c("variable", "year"))
```

```
## # A tibble: 2,896 x 5
##    country_name country_text_id variable  year     value
##    <chr>        <chr>           <chr>     <chr>    <dbl>
##  1 Mexico       MEX             polyarchy 1980     0.302
##  2 Mexico       MEX             polyarchy 1985     0.328
##  3 Mexico       MEX             polyarchy 1990     0.387
##  4 Mexico       MEX             polyarchy 1995     0.487
##  5 Mexico       MEX             polyarchy 2000     0.634
##  6 Mexico       MEX             polyarchy 2005     0.701
##  7 Mexico       MEX             polyarchy 2010     0.652
##  8 Mexico       MEX             polyarchy 2015     0.631
##  9 Mexico       MEX             gdppc     1980  9929    
## 10 Mexico       MEX             gdppc     1985  9785    
## # … with 2,886 more rows
```

---

Same in a single step:

```r
vdw %>% 
  pivot_longer(cols = polyarchy_1980:gdppc_2015,
*              names_to = c("variable", "year"),
*              names_sep = "_",
               values_to = "value")
```

```
## # A tibble: 2,896 x 5
##    country_name country_text_id variable  year     value
##    <chr>        <chr>           <chr>     <chr>    <dbl>
##  1 Mexico       MEX             polyarchy 1980     0.302
##  2 Mexico       MEX             polyarchy 1985     0.328
##  3 Mexico       MEX             polyarchy 1990     0.387
##  4 Mexico       MEX             polyarchy 1995     0.487
##  5 Mexico       MEX             polyarchy 2000     0.634
##  6 Mexico       MEX             polyarchy 2005     0.701
##  7 Mexico       MEX             polyarchy 2010     0.652
##  8 Mexico       MEX             polyarchy 2015     0.631
##  9 Mexico       MEX             gdppc     1980  9929    
## 10 Mexico       MEX             gdppc     1985  9785    
## # … with 2,886 more rows
```
…
## Applying `pivot_wider()`

```r
tidy_vd <- vdw %>% 
  pivot_longer(cols = polyarchy_1980:gdppc_2015,
               names_to = c("variable", "year"),
               names_sep = "_", 
               values_to = "value") %>% 
* pivot_wider(names_from = variable, values_from = "value")
tidy_vd
```

```
## # A tibble: 1,448 x 5
##    country_name country_text_id year  polyarchy  gdppc
##    <chr>        <chr>           <chr>     <dbl>  <dbl>
##  1 Mexico       MEX             1980      0.302  9929 
##  2 Mexico       MEX             1985      0.328  9785 
##  3 Mexico       MEX             1990      0.387  9699 
##  4 Mexico       MEX             1995      0.487  9945.
##  5 Mexico       MEX             2000      0.634 12613.
##  6 Mexico       MEX             2005      0.701 13656.
##  7 Mexico       MEX             2010      0.652 14697.
##  8 Mexico       MEX             2015      0.631 16096 
##  9 Suriname     SUR             1980      0.247    NA 
## 10 Suriname     SUR             1985      0.179    NA 
## # … with 1,438 more rows
```

Mission accomplished! 

---

## Merging datasets 

Suppose we want to analyze by continent. No continent labels: 

```r
tidy_vd
```

```
## # A tibble: 1,448 x 5
##    country_name country_text_id year  polyarchy  gdppc
##    <chr>        <chr>           <chr>     <dbl>  <dbl>
##  1 Mexico       MEX             1980      0.302  9929 
##  2 Mexico       MEX             1985      0.328  9785 
##  3 Mexico       MEX             1990      0.387  9699 
##  4 Mexico       MEX             1995      0.487  9945.
##  5 Mexico       MEX             2000      0.634 12613.
##  6 Mexico       MEX             2005      0.701 13656.
##  7 Mexico       MEX             2010      0.652 14697.
##  8 Mexico       MEX             2015      0.631 16096 
##  9 Suriname     SUR             1980      0.247    NA 
## 10 Suriname     SUR             1985      0.179    NA 
## # … with 1,438 more rows
```

---

But from [this url](https://datahub.io/JohnSnowLabs/country-and-continent-codes-list/r/country-and-continent-codes-list-csv.csv) we can download this dataset (also in course repo):

```r
codes
```

```
## # A tibble: 262 x 6
##    Continent_Name Continent_Code Country_Name            Two_Letter_Countr…
##    <chr>          <chr>          <chr>                   <chr>             
##  1 Asia           AS             Afghanistan, Islamic R… AF                
##  2 Europe         EU             Albania, Republic of    AL                
##  3 Antarctica     AN             Antarctica (the territ… AQ                
##  4 Africa         AF             Algeria, People's Demo… DZ                
##  5 Oceania        OC             American Samoa          AS                
##  6 Europe         EU             Andorra, Principality … AD                
##  7 Africa         AF             Angola, Republic of     AO                
##  8 North America  <NA>           Antigua and Barbuda     AG                
##  9 Europe         EU             Azerbaijan, Republic of AZ                
## 10 Asia           AS             Azerbaijan, Republic of AZ                
## # … with 252 more rows, and 2 more variables:
## #   Three_Letter_Country_Code <chr>, Country_Number <dbl>
```

---

The key columns: 

```r
codes %>% 
  select(Three_Letter_Country_Code, Country_Name, Continent_Name)
```

```
## # A tibble: 262 x 3
##    Three_Letter_Country_C… Country_Name                      Continent_Name
##    <chr>                   <chr>                             <chr>         
##  1 AFG                     Afghanistan, Islamic Republic of  Asia          
##  2 ALB                     Albania, Republic of              Europe        
##  3 ATA                     Antarctica (the territory South … Antarctica    
##  4 DZA                     Algeria, People's Democratic Rep… Africa        
##  5 ASM                     American Samoa                    Oceania       
##  6 AND                     Andorra, Principality of          Europe        
##  7 AGO                     Angola, Republic of               Africa        
##  8 ATG                     Antigua and Barbuda               North America 
##  9 AZE                     Azerbaijan, Republic of           Europe        
## 10 AZE                     Azerbaijan, Republic of           Asia          
## # … with 252 more rows
```

---

Compare:

```r
tidy_vd %>% 
  select(country_name, country_text_id, year, polyarchy, gdppc)
```

```
## # A tibble: 1,448 x 5
##    country_name country_text_id year  polyarchy  gdppc
##    <chr>        <chr>           <chr>     <dbl>  <dbl>
##  1 Mexico       MEX             1980      0.302  9929 
##  2 Mexico       MEX             1985      0.328  9785 
##  3 Mexico       MEX             1990      0.387  9699 
##  4 Mexico       MEX             1995      0.487  9945.
##  5 Mexico       MEX             2000      0.634 12613.
##  6 Mexico       MEX             2005      0.701 13656.
##  7 Mexico       MEX             2010      0.652 14697.
##  8 Mexico       MEX             2015      0.631 16096 
##  9 Suriname     SUR             1980      0.247    NA 
## 10 Suriname     SUR             1985      0.179    NA 
## # … with 1,438 more rows
```

We want to merge `codes` into `tidy_vd`: wherever `country_text_id` in `tidy_vd` matches `Three_Letter_Country_Code` in `codes`, we want to add the `Continent_Name` from `codes`.    

---

## `left_join()` 

```r
tidy_vd %>% 
  left_join(codes, by = c("country_text_id" = "Three_Letter_Country_Code"))
```

```
## # A tibble: 1,504 x 10
##    country_name country_text_id year  polyarchy  gdppc Continent_Name
##    <chr>        <chr>           <chr>     <dbl>  <dbl> <chr>         
##  1 Mexico       MEX             1980      0.302  9929  North America 
##  2 Mexico       MEX             1985      0.328  9785  North America 
##  3 Mexico       MEX             1990      0.387  9699  North America 
##  4 Mexico       MEX             1995      0.487  9945. North America 
##  5 Mexico       MEX             2000      0.634 12613. North America 
##  6 Mexico       MEX             2005      0.701 13656. North America 
##  7 Mexico       MEX             2010      0.652 14697. North America 
##  8 Mexico       MEX             2015      0.631 16096  North America 
##  9 Suriname     SUR             1980      0.247    NA  South America 
## 10 Suriname     SUR             1985      0.179    NA  South America 
## # … with 1,494 more rows, and 4 more variables: Continent_Code <chr>,
## #   Country_Name <chr>, Two_Letter_Country_Code <chr>,
## #   Country_Number <dbl>
```
…
