PLSC30500, Fall 2021
…
#### `tibble`s: better viewing

<!-- see
https://github.com/yihui/xaringan/issues/169
for shortcut
--> 

.small-output[

```r
vdem %>% as_tibble()   # "tibble" package is part of "tidyverse"
```

```
## # A tibble: 27,192 x 4,176
##    country_name country_text_id country_id  year historical_date project
##    <chr>        <chr>                <dbl> <dbl> <date>            <dbl>
##  1 Mexico       MEX                      3  1789 1789-12-31            1
##  2 Mexico       MEX                      3  1790 1790-12-31            1
##  3 Mexico       MEX                      3  1791 1791-12-31            1
##  4 Mexico       MEX                      3  1792 1792-12-31            1
##  5 Mexico       MEX                      3  1793 1793-12-31            1
##  6 Mexico       MEX                      3  1794 1794-12-31            1
##  7 Mexico       MEX                      3  1795 1795-12-31            1
##  8 Mexico       MEX                      3  1796 1796-12-31            1
##  9 Mexico       MEX                      3  1797 1797-12-31            1
## 10 Mexico       MEX                      3  1798 1798-12-31            1
## #  with 27,182 more rows, and 4,170 more variables: historical <dbl>,
## #   histname <chr>, codingstart <dbl>, codingend <dbl>,
## #   codingstart_contemp <dbl>, codingend_contemp <dbl>, codingstart_hist <dbl>,
## #   codingend_hist <dbl>, gapstart1 <dbl>, gapstart2 <dbl>, gapstart3 <dbl>,
## #   gapend1 <dbl>, gapend2 <dbl>, gapend3 <dbl>, gap_index <dbl>,
## #   COWcode <dbl>, v2x_polyarchy <dbl>, v2x_polyarchy_codelow <dbl>,
## #   v2x_polyarchy_codehigh <dbl>, v2x_polyarchy_sd <dbl>, v2x_libdem <dbl>,
## #   v2x_libdem_codelow <dbl>, v2x_libdem_codehigh <dbl>, v2x_libdem_sd <dbl>,
## #   v2x_partipdem <dbl>, v2x_partipdem_codelow <dbl>,
…
Can be more readable.

---

### Pick out columns with `select()`

```r
vd <- as_tibble(vdem)
vd %>% 
  select(country_text_id, year, e_regionpol_6C, 
         v2x_polyarchy, e_migdppc)
```

```
## # A tibble: 27,192 x 5
##    country_text_id  year e_regionpol_6C v2x_polyarchy e_migdppc
##    <chr>           <dbl>          <dbl>         <dbl>     <dbl>
##  1 MEX              1789              2         0.026      1304
##  2 MEX              1790              2         0.026      1298
##  3 MEX              1791              2         0.026      1331
##  4 MEX              1792              2         0.026      1353
##  5 MEX              1793              2         0.026      1374
##  6 MEX              1794              2         0.026      1385
##  7 MEX              1795              2         0.026      1388
##  8 MEX              1796              2         0.026      1380
##  9 MEX              1797              2         0.026      1356
## 10 MEX              1798              2         0.026      1341
## #  with 27,182 more rows
```

---

### Pick out rows with `filter()`

```r
vd %>% 
  select(country_text_id, year, e_regionpol_6C, 
         v2x_polyarchy, e_migdppc) %>% 
* filter(year == 2015)
```

```
## # A tibble: 179 x 5
##    country_text_id  year e_regionpol_6C v2x_polyarchy e_migdppc
##    <chr>           <dbl>          <dbl>         <dbl>     <dbl>
##  1 MEX              2015              2         0.631     16096
##  2 SUR              2015              2         0.777        NA
##  3 SWE              2015              5         0.915     43746
##  4 CHE              2015              5         0.901     59307
##  5 GHA              2015              4         0.724      3809
##  6 ZAF              2015              4         0.752     12246
##  7 JPN              2015              6         0.821     37031
##  8 MMR              2015              6         0.375      5021
##  9 RUS              2015              1         0.269     23691
## 10 ALB              2015              1         0.521     10032
## #  with 169 more rows
```

---

### Create new variables with `mutate()`

```r
vd %>% 
  select(country_text_id, year, e_regionpol_6C, v2x_polyarchy, e_migdppc) %>% 
  filter(year == 2015) %>% 
* mutate(polyarchy_times_100 = 100*v2x_polyarchy) %>%
  select(country_text_id, year, v2x_polyarchy, polyarchy_times_100)
```

```
## # A tibble: 179 x 4
##    country_text_id  year v2x_polyarchy polyarchy_times_100
##    <chr>           <dbl>         <dbl>               <dbl>
##  1 MEX              2015         0.631                63.1
##  2 SUR              2015         0.777                77.7
##  3 SWE              2015         0.915                91.5
##  4 CHE              2015         0.901                90.1
##  5 GHA              2015         0.724                72.4
##  6 ZAF              2015         0.752                75.2
##  7 JPN              2015         0.821                82.1
##  8 MMR              2015         0.375                37.5
##  9 RUS              2015         0.269                26.9
## 10 ALB              2015         0.521                52.1
## #  with 169 more rows
```
…
---

### Grouped summaries

```r
vd %>% 
  filter(year > 1900) %>% 
* group_by(year) %>%
  summarize(mean_poly = mean(v2x_polyarchy, na.rm = T),
            mean_gdppc = mean(e_migdppc, na.rm = T))
```

```
## # A tibble: 120 x 3
##     year mean_poly mean_gdppc
##    <dbl>     <dbl>      <dbl>
##  1  1901     0.148      3203.
##  2  1902     0.148      3209.
##  3  1903     0.147      3290.
##  4  1904     0.148      3310.
##  5  1905     0.148      3341.
##  6  1906     0.150      3431.
##  7  1907     0.150      3545.
##  8  1908     0.150      3504.
##  9  1909     0.152      3598.
## 10  1910     0.152      3630.
## #  with 110 more rows
```
…
