PLSC30500, Fall 2021
…
```
## # A tibble: 1,000 x 5
##        X     D      Y0    Y1 Y_obs
##    <dbl> <int>   <dbl> <dbl> <dbl>
##  1     3     1  2.02    4.67 4.67 
##  2     1     0  2.57    1.52 2.57 
##  3     1     1 -0.0946  1.55 1.55 
##  4     3     1  1.98    5.07 5.07 
##  5     3     1  3.16    7.79 7.79 
##  6     2     0  3.28    5.85 3.28 
##  7     3     0  1.98    4.75 1.98 
##  8     2     0  0.708   2.00 0.708
##  9     2     0  2.32    4.20 2.32 
## 10     2     0  1.10    3.03 1.10 
## #  with 990 more rows
```
…
