8.1 Statistical Inference Continued Hypothesis Testing
…
# 

```r
boot_samples <- map(1:1000, # for 1000 times
                    # resample w/replacement
                    ~ slice_sample(mcr, 
                                   replace = TRUE, 
                                   n = nrow(mcr)))

head(boot_samples, 2)
```

```
## [[1]]
## # A tibble: 700 x 3
##    black record call_back
##    <dbl>  <dbl>     <dbl>
##  1     1      1         0
##  2     1      0         0
##  3     0      0         0
##  4     1      0         0
##  5     1      0         0
##  6     1      1         0
##  7     0      1         1
##  8     1      1         0
##  9     0      1         0
## 10     1      1         0
## #  with 690 more rows
## 
## [[2]]
## # A tibble: 700 x 3
##    black record call_back
##    <dbl>  <dbl>     <dbl>
##  1     0      0         0
##  2     1      0         0
##  3     0      0         0
##  4     1      1         0
##  5     0      0         1
##  6     1      0         1
##  7     1      0         0
##  8     0      1         1
##  9     0      0         0
## 10     1      0         0
## #  with 690 more rows
```
…
---

```r
boot_lm_df <- bind_rows(boot_lm)

boot_lm_df
```

```
## # A tibble: 1,000 x 4
##    `(Intercept)`  black  record `black:record`
##            <dbl>  <dbl>   <dbl>          <dbl>
##  1         0.379 -0.273 -0.168         0.114  
##  2         0.329 -0.164 -0.156         0.0457 
##  3         0.292 -0.181 -0.0709       -0.00361
##  4         0.384 -0.263 -0.234         0.152  
##  5         0.346 -0.207 -0.180         0.106  
##  6         0.337 -0.151 -0.106        -0.0517 
##  7         0.357 -0.239 -0.204         0.118  
##  8         0.338 -0.187 -0.140         0.0442 
##  9         0.356 -0.168 -0.162         0.0424 
## 10         0.335 -0.267 -0.159         0.155  
## #  with 990 more rows
```
…
