Lecture 2.1 in-class code and follow-up
…
## 
##  Column specification 
## cols(
##   country_name = col_character(),
##   continent_name = col_character(),
##   polyarchy = col_double(),
##   pop = col_double(),
##   gdppc = col_double()
## )

dat %>% 
  select(country_name, continent_name)

## # A tibble: 181 x 2
##    country_name  continent_name
##    <chr>         <chr>         
##  1 Mexico        North America 
##  2 Suriname      South America 
##  3 Sweden        Europe        
##  4 Switzerland   Europe        
##  5 Ghana         Africa        
##  6 South Africa  Africa        
##  7 Japan         Asia          
##  8 Burma/Myanmar Asia          
##  9 Russia        Europe        
## 10 Russia        Asia          
## #  with 171 more rows
…
